# compile vhdl design source files
vhdl xil_defaultlib  \
"../../../../Puerta.srcs/sources_1/imports/new/decod_puerta.vhd" \
"../../../../Puerta.srcs/sim_1/imports/new/decod_puerta_tb.vhd" \

# Do not sort compile order
nosort
